pipelined_debug.vcd
$date
	Sat Mar 28 14:32:31 2026
$end
$version
	Icarus Verilog
$end
$timescale
	1ps
$end
$scope module Pipelined_TB_Debug $end
$scope module DUT $end
$var wire 1 ! clk $end
$var wire 1 " reset $end
$var wire 32 # WriteData [31:0] $end
$var wire 32 $ ReadData [31:0] $end
$var wire 32 % PC [31:0] $end
$var wire 1 & MemWrite $end
$var wire 32 ' Instr [31:0] $end
$var wire 32 ( DataAddr [31:0] $end
$scope module core $end
$var wire 32 ) ALUResult [31:0] $end
$var wire 1 * BranchTakenE $end
$var wire 1 & MemWrite $end
$var wire 32 + PC [31:0] $end
$var wire 1 , PCSrcE $end
$var wire 32 - ReadData_M [31:0] $end
$var wire 32 . SrcAE [31:0] $end
$var wire 32 / WriteData [31:0] $end
$var wire 1 ! clk $end
$var wire 1 " reset $end
$var wire 1 0 ZeroE $end
$var wire 32 1 WriteData_M [31:0] $end
$var wire 1 2 StallF $end
$var wire 1 3 StallD $end
$var wire 32 4 SrcBE [31:0] $end
$var wire 5 5 Rs2E [4:0] $end
$var wire 5 6 Rs2D [4:0] $end
$var wire 5 7 Rs1E [4:0] $end
$var wire 5 8 Rs1D [4:0] $end
$var wire 32 9 ResultW [31:0] $end
$var wire 2 : ResultSrcW [1:0] $end
$var wire 2 ; ResultSrcM [1:0] $end
$var wire 2 < ResultSrcE [1:0] $end
$var wire 2 = ResultSrcD [1:0] $end
$var wire 1 > RegWriteW $end
$var wire 1 ? RegWriteM $end
$var wire 1 @ RegWriteE $end
$var wire 1 A RegWriteD $end
$var wire 32 B ReadData_W [31:0] $end
$var wire 32 C ReadData [31:0] $end
$var wire 5 D RdW [4:0] $end
$var wire 5 E RdM [4:0] $end
$var wire 5 F RdE [4:0] $end
$var wire 5 G RdD [4:0] $end
$var wire 32 H RD2_E [31:0] $end
$var wire 32 I RD2D [31:0] $end
$var wire 32 J RD1_E [31:0] $end
$var wire 32 K RD1D [31:0] $end
$var wire 32 L PC_F [31:0] $end
$var wire 32 M PC_E [31:0] $end
$var wire 32 N PC_D [31:0] $end
$var wire 32 O PCTarget_E [31:0] $end
$var wire 32 P PCPlus4_W [31:0] $end
$var wire 32 Q PCPlus4_M [31:0] $end
$var wire 32 R PCPlus4_F [31:0] $end
$var wire 32 S PCPlus4_E [31:0] $end
$var wire 32 T PCPlus4_D [31:0] $end
$var wire 32 U PCNext [31:0] $end
$var wire 1 V MemWriteM $end
$var wire 1 W MemWriteE $end
$var wire 1 X MemWriteD $end
$var wire 1 Y MemReadE $end
$var wire 1 Z MemReadD $end
$var wire 1 [ JumpE $end
$var wire 1 \ JumpD $end
$var wire 32 ] Instr_D [31:0] $end
$var wire 32 ^ Instr [31:0] $end
$var wire 2 _ ImmSrcD [1:0] $end
$var wire 32 ` ImmExt_E [31:0] $end
$var wire 32 a ImmExt_D [31:0] $end
$var wire 32 b ForwardedB [31:0] $end
$var wire 32 c ForwardedA [31:0] $end
$var wire 2 d ForwardBE [1:0] $end
$var wire 2 e ForwardAE [1:0] $end
$var wire 1 f FlushE $end
$var wire 1 g FlushD $end
$var wire 1 h BranchE $end
$var wire 1 i BranchD $end
$var wire 1 j ALUSrcE $end
$var wire 1 k ALUSrcD $end
$var wire 32 l ALUResult_W [31:0] $end
$var wire 32 m ALUResult_M [31:0] $end
$var wire 32 n ALUResult_E [31:0] $end
$var wire 2 o ALUOpD [1:0] $end
$var wire 4 p ALUControlE [3:0] $end
$var wire 4 q ALUControlD [3:0] $end
$scope module alu $end
$var wire 32 r A [31:0] $end
$var wire 32 s Result [31:0] $end
$var wire 32 t temp [31:0] $end
$var wire 1 u sltu $end
$var wire 1 v slt $end
$var wire 1 0 Zero $end
$var wire 1 w V $end
$var wire 32 x Sum [31:0] $end
$var wire 32 y B [31:0] $end
$var wire 4 z ALUControl [3:0] $end
$var reg 32 { ResultReg [31:0] $end
$upscope $end
$scope module alu_decoder $end
$var wire 1 | RtypeSub $end
$var wire 3 } funct3 [2:0] $end
$var wire 1 ~ funct7b5 $end
$var wire 1 !" opb5 $end
$var wire 2 "" ALUOp [1:0] $end
$var reg 4 #" ALUControl [3:0] $end
$upscope $end
$scope module alu_mux $end
$var wire 32 $" WD [31:0] $end
$var wire 32 %" ImmExt [31:0] $end
$var wire 32 &" B [31:0] $end
$var wire 1 j ALUSrc $end
$upscope $end
$scope module ex_mem $end
$var wire 32 '" ALUResult_E [31:0] $end
$var wire 32 (" WriteData_E [31:0] $end
$var wire 1 ! clk $end
$var wire 1 " reset $end
$var wire 2 )" ResultSrc_E [1:0] $end
$var wire 1 @ RegWrite_E $end
$var wire 5 *" Rd_E [4:0] $end
$var wire 32 +" PCPlus4_E [31:0] $end
$var wire 1 W MemWrite_E $end
$var reg 32 ," ALUResult_M [31:0] $end
$var reg 1 V MemWrite_M $end
$var reg 32 -" PCPlus4_M [31:0] $end
$var reg 5 ." Rd_M [4:0] $end
$var reg 1 ? RegWrite_M $end
$var reg 2 /" ResultSrc_M [1:0] $end
$var reg 32 0" WriteData_M [31:0] $end
$upscope $end
$scope module extend_inst $end
$var wire 32 1" ImmExt [31:0] $end
$var wire 25 2" Instr [31:7] $end
$var wire 2 3" ImmSrc [1:0] $end
$var reg 32 4" ImmExtReg [31:0] $end
$upscope $end
$scope module forward $end
$var wire 5 5" RdM [4:0] $end
$var wire 1 ? RegWriteM $end
$var wire 5 6" Rs2E [4:0] $end
$var wire 5 7" Rs1E [4:0] $end
$var wire 1 > RegWriteW $end
$var wire 5 8" RdW [4:0] $end
$var reg 2 9" ForwardAE [1:0] $end
$var reg 2 :" ForwardBE [1:0] $end
$upscope $end
$scope module hazard $end
$var wire 1 g FlushD $end
$var wire 1 f FlushE $end
$var wire 1 , PCSrcE $end
$var wire 5 ;" Rs1D [4:0] $end
$var wire 5 <" Rs2D [4:0] $end
$var wire 1 3 StallD $end
$var wire 1 2 StallF $end
$var wire 1 =" lwStall $end
$var wire 5 >" RdE [4:0] $end
$var wire 1 Y MemReadE $end
$upscope $end
$scope module id_ex $end
$var wire 4 ?" ALUControl_D [3:0] $end
$var wire 1 f FlushE $end
$var wire 32 @" ImmExt_D [31:0] $end
$var wire 5 A" Rd_D [4:0] $end
$var wire 5 B" Rs1_D [4:0] $end
$var wire 5 C" Rs2_D [4:0] $end
$var wire 1 D" StallD $end
$var wire 1 ! clk $end
$var wire 1 " reset $end
$var wire 2 E" ResultSrc_D [1:0] $end
$var wire 1 A RegWrite_D $end
$var wire 32 F" RD2_D [31:0] $end
$var wire 32 G" RD1_D [31:0] $end
$var wire 32 H" PC_D [31:0] $end
$var wire 32 I" PCPlus4_D [31:0] $end
$var wire 1 X MemWrite_D $end
$var wire 1 Z MemRead_D $end
$var wire 1 \ Jump_D $end
$var wire 1 i Branch_D $end
$var wire 1 k ALUSrc_D $end
$var reg 4 J" ALUControl_E [3:0] $end
$var reg 1 j ALUSrc_E $end
$var reg 1 h Branch_E $end
$var reg 32 K" ImmExt_E [31:0] $end
$var reg 1 [ Jump_E $end
$var reg 1 Y MemRead_E $end
$var reg 1 W MemWrite_E $end
$var reg 32 L" PCPlus4_E [31:0] $end
$var reg 32 M" PC_E [31:0] $end
$var reg 32 N" RD1_E [31:0] $end
$var reg 32 O" RD2_E [31:0] $end
$var reg 5 P" Rd_E [4:0] $end
$var reg 1 @ RegWrite_E $end
$var reg 2 Q" ResultSrc_E [1:0] $end
$var reg 5 R" Rs1_E [4:0] $end
$var reg 5 S" Rs2_E [4:0] $end
$upscope $end
$scope module if_id $end
$var wire 1 g FlushD $end
$var wire 1 3 StallD $end
$var wire 1 ! clk $end
$var wire 1 " reset $end
$var wire 32 T" PC_F [31:0] $end
$var wire 32 U" PCPlus4_F [31:0] $end
$var wire 32 V" Instr_F [31:0] $end
$var reg 32 W" Instr_D [31:0] $end
$var reg 32 X" PCPlus4_D [31:0] $end
$var reg 32 Y" PC_D [31:0] $end
$upscope $end
$scope module main_decoder $end
$var wire 7 Z" op [6:0] $end
$var wire 2 [" ResultSrc [1:0] $end
$var wire 1 A RegWrite $end
$var wire 1 X MemWrite $end
$var wire 1 Z MemRead $end
$var wire 1 \ Jump $end
$var wire 2 \" ImmSrc [1:0] $end
$var wire 1 i Branch $end
$var wire 2 ]" ALUop [1:0] $end
$var wire 1 k ALUSrc $end
$var reg 12 ^" control_signals [11:0] $end
$upscope $end
$scope module mem_wb $end
$var wire 32 _" ALUResult_M [31:0] $end
$var wire 32 `" PCPlus4_M [31:0] $end
$var wire 5 a" Rd_M [4:0] $end
$var wire 32 b" ReadData_M [31:0] $end
$var wire 1 ? RegWrite_M $end
$var wire 2 c" ResultSrc_M [1:0] $end
$var wire 1 ! clk $end
$var wire 1 " reset $end
$var reg 32 d" ALUResult_W [31:0] $end
$var reg 32 e" PCPlus4_W [31:0] $end
$var reg 5 f" Rd_W [4:0] $end
$var reg 32 g" ReadData_W [31:0] $end
$var reg 1 > RegWrite_W $end
$var reg 2 h" ResultSrc_W [1:0] $end
$upscope $end
$scope module pc_inst $end
$var wire 32 i" PCNext [31:0] $end
$var wire 1 2 StallF $end
$var wire 1 ! clk $end
$var wire 1 " reset $end
$var reg 32 j" PC [31:0] $end
$upscope $end
$scope module pcplus4_inst $end
$var wire 32 k" PC [31:0] $end
$var wire 32 l" PCPlus4 [31:0] $end
$upscope $end
$scope module regfile $end
$var wire 5 m" RA1 [4:0] $end
$var wire 5 n" RA2 [4:0] $end
$var wire 5 o" WA3 [4:0] $end
$var wire 1 > WE3 $end
$var wire 1 ! clk $end
$var wire 32 p" WD3 [31:0] $end
$var wire 32 q" RD2 [31:0] $end
$var wire 32 r" RD1 [31:0] $end
$var integer 32 s" i [31:0] $end
$upscope $end
$scope module result_mux $end
$var wire 32 t" ALUResult [31:0] $end
$var wire 32 u" PC_Plus_4 [31:0] $end
$var wire 32 v" ReadData [31:0] $end
$var wire 2 w" ResultSrc [1:0] $end
$var wire 32 x" Result [31:0] $end
$upscope $end
$upscope $end
$scope module dmem $end
$var wire 32 y" A [31:0] $end
$var wire 32 z" RD [31:0] $end
$var wire 32 {" WD [31:0] $end
$var wire 1 & WE $end
$var wire 1 ! clk $end
$upscope $end
$scope module imem $end
$var wire 32 |" A [31:0] $end
$var wire 32 }" RD [31:0] $end
$upscope $end
$upscope $end
$upscope $end
$enddefinitions $end
$comment Show the parameter values. $end
$dumpall
$end
#0
$dumpvars
bx }"
bx |"
bx {"
bx z"
bx y"
bx x"
bx w"
bx v"
bx u"
bx t"
b100000 s"
bx r"
bx q"
bx p"
bx o"
bx n"
bx m"
bx l"
bx k"
bx j"
bx i"
bx h"
bx g"
bx f"
bx e"
bx d"
bx c"
bx b"
bx a"
bx `"
bx _"
bx ^"
bx ]"
bx \"
bx ["
bx Z"
bx Y"
bx X"
bx W"
bx V"
bx U"
bx T"
bx S"
bx R"
bx Q"
bx P"
bx O"
bx N"
bx M"
bx L"
bx K"
bx J"
bx I"
bx H"
bx G"
bx F"
bx E"
zD"
bx C"
bx B"
bx A"
bx @"
bx ?"
bx >"
x="
bx <"
bx ;"
bx :"
bx 9"
bx 8"
bx 7"
bx 6"
bx 5"
bx 4"
bx 3"
bx 2"
bx 1"
bx 0"
bx /"
bx ."
bx -"
bx ,"
bx +"
bx *"
bx )"
bx ("
b0 '"
bx &"
bx %"
bx $"
bx #"
bx ""
x!"
x~
bx }
x|
b0 {
bx z
bx y
bx x
xw
xv
xu
bx t
b0 s
bx r
bx q
bx p
bx o
b0 n
bx m
bx l
xk
xj
xi
xh
xg
xf
bx e
bx d
bx c
bx b
bx a
bx `
bx _
bx ^
bx ]
x\
x[
xZ
xY
xX
xW
xV
bx U
bx T
bx S
bx R
bx Q
bx P
bx O
bx N
bx M
bx L
bx K
bx J
bx I
bx H
bx G
bx F
bx E
bx D
bx C
bx B
xA
x@
x?
x>
bx =
bx <
bx ;
bx :
bx 9
bx 8
bx 7
bx 6
bx 5
bx 4
x3
x2
bx 1
10
bx /
bx .
bx -
x,
bx +
x*
bx )
bx (
bx '
x&
bx %
bx $
bx #
x"
0!
$end
#10000
b0 (
b0 )
b0 y"
b0 m
b0 ,"
b0 _"
1!
#20000
0!
0"
#30000
b0 l
b0 d"
b0 t"
1!
#40000
0w
b0 a
b0 1"
b0 @"
b0 4"
b0 x
b0 t
0v
0A
b0 _
b0 3"
b0 \"
0k
0X
b0 =
b0 E"
b0 ["
0i
b0 o
b0 ""
b0 ]"
0\
0Z
0u
b0 4
b0 y
b0 &"
b0 q
b0 #"
b0 ?"
0|
b0 ^"
b0 I
b0 F"
b0 q"
b0 K
b0 G"
b0 r"
0f
b0 b
b0 $"
b0 ("
b0 .
b0 r
b0 c
b10100000000000100010011 '
b10100000000000100010011 ^
b10100000000000100010011 V"
b10100000000000100010011 }"
0~
b0 }
0!"
b0 Z"
b0 2"
b0 G
b0 A"
b0 6
b0 <"
b0 C"
b0 8
b0 ;"
b0 B"
b0 n"
b0 m"
10
b0 n
b0 s
b0 '"
b0 {
02
03
0="
0g
0,
0*
b100 U
b100 i"
b0 d
b0 :"
b0 e
b0 9"
b0 9
b0 p"
b0 x"
b100 R
b100 U"
b100 l"
b0 %
b0 +
b0 |"
b0 L
b0 T"
b0 j"
b0 k"
b0 ]
b0 W"
b0 T
b0 I"
b0 X"
b0 N
b0 H"
b0 Y"
b0 p
b0 z
b0 J"
0Y
0[
0@
0j
0h
0W
b0 <
b0 )"
b0 Q"
b0 F
b0 *"
b0 >"
b0 P"
b0 5
b0 6"
b0 S"
b0 7
b0 7"
b0 R"
b0 H
b0 O"
b0 J
b0 N"
b0 O
b0 `
b0 %"
b0 K"
b0 S
b0 +"
b0 L"
b0 M
b0 M"
0?
0&
0V
b0 ;
b0 /"
b0 c"
b0 E
b0 ."
b0 5"
b0 a"
b0 Q
b0 -"
b0 `"
b0 #
b0 /
b0 {"
b0 1
b0 0"
0>
b0 :
b0 h"
b0 w"
b0 D
b0 8"
b0 f"
b0 o"
b0 P
b0 e"
b0 u"
b0 B
b0 g"
b0 v"
0!
1"
#50000
1!
#60000
0!
0"
#70000
1A
1k
b10 o
b10 ""
b10 ]"
b100100001000 ^"
b101 a
b101 1"
b101 @"
b101 4"
b1000 U
b1000 i"
b110000000000000110010011 '
b110000000000000110010011 ^
b110000000000000110010011 V"
b110000000000000110010011 }"
b10011 Z"
b1010000000000010 2"
b10 G
b10 A"
b101 6
b101 <"
b101 C"
b101 n"
b1000 R
b1000 U"
b1000 l"
b100 %
b100 +
b100 |"
b100 L
b100 T"
b100 j"
b100 k"
b10100000000000100010011 ]
b10100000000000100010011 W"
b100 T
b100 I"
b100 X"
bx B
bx g"
bx v"
1!
#80000
0!
#90000
00
b101 n
b101 s
b101 '"
b101 {
1v
b101 x
b101 t
b1100 a
b1100 1"
b1100 @"
b1100 4"
1u
b101 4
b101 y
b101 &"
b11000000000000011 2"
b11 G
b11 A"
b1100 6
b1100 <"
b1100 C"
b1100 n"
b1100 U
b1100 i"
b11111111011100011000001110010011 '
b11111111011100011000001110010011 ^
b11111111011100011000001110010011 V"
b11111111011100011000001110010011 }"
1@
1j
b10 F
b10 *"
b10 >"
b10 P"
b101 5
b101 6"
b101 S"
b101 O
b101 `
b101 %"
b101 K"
b100 S
b100 +"
b100 L"
b110000000000000110010011 ]
b110000000000000110010011 W"
b1000 T
b1000 I"
b1000 X"
b100 N
b100 H"
b100 Y"
b1100 R
b1100 U"
b1100 l"
b1000 %
b1000 +
b1000 |"
b1000 L
b1000 T"
b1000 j"
b1000 k"
1!
#100000
0!
#110000
b1100 n
b1100 s
b1100 '"
b1100 {
b11111111111111111111111111110111 a
b11111111111111111111111111110111 1"
b11111111111111111111111111110111 @"
b11111111111111111111111111110111 4"
b1100 x
b1100 t
b10000 U
b10000 i"
b1000111110001000110011 '
b1000111110001000110011 ^
b1000111110001000110011 V"
b1000111110001000110011 }"
1~
b1111111101110001100000111 2"
b111 G
b111 A"
b10111 6
b10111 <"
b10111 C"
b11 8
b11 ;"
b11 B"
b10111 n"
b11 m"
b1100 4
b1100 y
b1100 &"
b10000 R
b10000 U"
b10000 l"
b1100 %
b1100 +
b1100 |"
b1100 L
b1100 T"
b1100 j"
b1100 k"
b11111111011100011000001110010011 ]
b11111111011100011000001110010011 W"
b1100 T
b1100 I"
b1100 X"
b1000 N
b1000 H"
b1000 Y"
b11 F
b11 *"
b11 >"
b11 P"
b1100 5
b1100 6"
b1100 S"
b1100 `
b1100 %"
b1100 K"
b1000 S
b1000 +"
b1000 L"
b10000 O
b100 M
b100 M"
1?
b10 E
b10 ."
b10 5"
b10 a"
b100 Q
b100 -"
b100 `"
b101 (
b101 )
b101 y"
b101 m
b101 ,"
b101 _"
1!
#120000
0!
#130000
1w
b11 n
b11 s
b11 '"
b11 {
bx _
bx 3"
bx \"
0k
b101 9
b101 p"
b101 x"
b1100 .
b1100 r
b1100 c
0v
b11 x
b11111111111111111111111111110111 t
b11 q
b11 #"
b11 ?"
b1xx000001000 ^"
bx a
bx 1"
bx @"
bx 4"
b10 e
b10 9"
0u
b11111111111111111111111111110111 4
b11111111111111111111111111110111 y
b11111111111111111111111111110111 &"
0~
b110 }
1!"
b110011 Z"
b100011111000100 2"
b100 G
b100 A"
b10 6
b10 <"
b10 C"
b111 8
b111 ;"
b111 B"
b10 n"
b111 m"
b10100 U
b10100 i"
b10000011111001010110011 '
b10000011111001010110011 ^
b10000011111001010110011 V"
b10000011111001010110011 }"
1>
b10 D
b10 8"
b10 f"
b10 o"
b100 P
b100 e"
b100 u"
b101 l
b101 d"
b101 t"
b11 E
b11 ."
b11 5"
b11 a"
b1000 Q
b1000 -"
b1000 `"
b1100 (
b1100 )
b1100 y"
b1100 m
b1100 ,"
b1100 _"
b111 F
b111 *"
b111 >"
b111 P"
b10111 5
b10111 6"
b10111 S"
b11 7
b11 7"
b11 R"
b11111111111111111111111111110111 `
b11111111111111111111111111110111 %"
b11111111111111111111111111110111 K"
b1100 S
b1100 +"
b1100 L"
b11111111111111111111111111111111 O
b1000 M
b1000 M"
b1000111110001000110011 ]
b1000111110001000110011 W"
b10000 T
b10000 I"
b10000 X"
b1100 N
b1100 H"
b1100 Y"
b10100 R
b10100 U"
b10100 l"
b10000 %
b10000 +
b10000 |"
b10000 L
b10000 T"
b10000 j"
b10000 k"
1!
#140000
b101 I
b101 F"
b101 q"
0!
#150000
b111 n
b111 s
b111 '"
b111 {
1v
1u
b10 q
b10 #"
b10 ?"
b0 I
b0 F"
b0 q"
1w
b101 b
b101 $"
b101 ("
b11111111111111111111111111111010 t
b1100 9
b1100 p"
b1100 x"
b11000 U
b11000 i"
b10000101000001010110011 '
b10000101000001010110011 ^
b10000101000001010110011 V"
b10000101000001010110011 }"
b111 }
b1000001111100101 2"
b101 G
b101 A"
b100 6
b100 <"
b100 C"
b11 8
b11 ;"
b11 B"
b100 n"
b11 m"
b101 4
b101 y
b101 &"
b11111111111111111111111111111110 x
b11 .
b11 r
b11 c
b10 e
b10 9"
b11000 R
b11000 U"
b11000 l"
b10100 %
b10100 +
b10100 |"
b10100 L
b10100 T"
b10100 j"
b10100 k"
b10000011111001010110011 ]
b10000011111001010110011 W"
b10100 T
b10100 I"
b10100 X"
b10000 N
b10000 H"
b10000 Y"
b11 p
b11 z
b11 J"
0j
b100 F
b100 *"
b100 >"
b100 P"
b10 5
b10 6"
b10 S"
b111 7
b111 7"
b111 R"
b101 H
b101 O"
bx `
bx %"
bx K"
b10000 S
b10000 +"
b10000 L"
bx O
b1100 M
b1100 M"
b111 E
b111 ."
b111 5"
b111 a"
b1100 Q
b1100 -"
b1100 `"
b11 (
b11 )
b11 y"
b11 m
b11 ,"
b11 _"
b11 D
b11 8"
b11 f"
b11 o"
b1000 P
b1000 e"
b1000 u"
b1100 l
b1100 d"
b1100 t"
1!
#160000
b1100 K
b1100 G"
b1100 r"
0!
#170000
b111 4
b111 y
b111 &"
b11 9
b11 p"
b11 x"
0v
0w
b111 t
b111 b
b111 $"
b111 ("
b0 q
b0 #"
b0 ?"
b0 K
b0 G"
b0 r"
0u
b1100 .
b1100 r
b1100 c
b10011 x
b100 n
b100 s
b100 '"
b100 {
b10 d
b10 :"
b0 e
b0 9"
b0 }
b1000010100000101 2"
b101 8
b101 ;"
b101 B"
b101 m"
b11100 U
b11100 i"
b10011100101000100001100011 '
b10011100101000100001100011 ^
b10011100101000100001100011 V"
b10011100101000100001100011 }"
b111 D
b111 8"
b111 f"
b111 o"
b1100 P
b1100 e"
b1100 u"
b11 l
b11 d"
b11 t"
b100 E
b100 ."
b100 5"
b100 a"
b10000 Q
b10000 -"
b10000 `"
b101 #
b101 /
b101 {"
b101 1
b101 0"
b111 (
b111 )
b111 y"
b111 m
b111 ,"
b111 _"
b10 p
b10 z
b10 J"
b101 F
b101 *"
b101 >"
b101 P"
b100 5
b100 6"
b100 S"
b11 7
b11 7"
b11 R"
b0 H
b0 O"
b1100 J
b1100 N"
b10100 S
b10100 +"
b10100 L"
b10000 M
b10000 M"
b10000101000001010110011 ]
b10000101000001010110011 W"
b11000 T
b11000 I"
b11000 X"
b10100 N
b10100 H"
b10100 Y"
b11100 R
b11100 U"
b11100 l"
b11000 %
b11000 +
b11000 |"
b11000 L
b11000 T"
b11000 j"
b11000 k"
1!
#180000
0!
#190000
1v
b110000 a
b110000 1"
b110000 @"
b110000 4"
b1 q
b1 #"
b1 ?"
0A
b10 _
b10 3"
b10 \"
1i
b1 o
b1 ""
b1 ]"
b111 t
b10000010100 ^"
b11 I
b11 F"
b11 q"
b111 4
b111 y
b111 &"
b1011 x
1u
b100 .
b100 r
b100 c
b111 9
b111 p"
b111 x"
b100000 U
b100000 i"
b10000011010001000110011 '
b10000011010001000110011 ^
b10000011010001000110011 V"
b10000011010001000110011 }"
b1100011 Z"
b1001110010100010000 2"
b10000 G
b10000 A"
b111 6
b111 <"
b111 C"
b111 n"
b1011 n
b1011 s
b1011 '"
b1011 {
b111 b
b111 $"
b111 ("
b10 e
b10 9"
b1 d
b1 :"
b100000 R
b100000 U"
b100000 l"
b11100 %
b11100 +
b11100 |"
b11100 L
b11100 T"
b11100 j"
b11100 k"
b10011100101000100001100011 ]
b10011100101000100001100011 W"
b11100 T
b11100 I"
b11100 X"
b11000 N
b11000 H"
b11000 Y"
b0 p
b0 z
b0 J"
b101 7
b101 7"
b101 R"
b0 J
b0 N"
b11000 S
b11000 +"
b11000 L"
b10100 M
b10100 M"
b101 E
b101 ."
b101 5"
b101 a"
b10100 Q
b10100 -"
b10100 `"
b111 #
b111 /
b111 {"
b111 1
b111 0"
b100 (
b100 )
b100 y"
b100 m
b100 ,"
b100 _"
b100 D
b100 8"
b100 f"
b100 o"
b10000 P
b10000 e"
b10000 u"
b111 l
b111 d"
b111 t"
1!
#200000
0!
#210000
b11 4
b11 y
b11 &"
b101 q
b101 #"
b101 ?"
b11 b
b11 $"
b11 ("
1A
bx _
bx 3"
bx \"
0i
b10 o
b10 ""
b10 ]"
b100 9
b100 p"
b100 x"
0v
b1000 n
b1000 s
b1000 '"
b1000 {
b11111111111111111111111111111100 t
b1xx000001000 ^"
bx a
bx 1"
bx @"
bx 4"
b111 I
b111 F"
b111 q"
b1100 K
b1100 G"
b1100 r"
0u
b1011 .
b1011 r
b1011 c
b1000 x
b0 d
b0 :"
b10 e
b10 9"
b10 }
b110011 Z"
b1000001101000100 2"
b100 G
b100 A"
b100 6
b100 <"
b100 C"
b11 8
b11 ;"
b11 B"
b100 n"
b11 m"
b100100 U
b100100 i"
b100000010001100011 '
b100000010001100011 ^
b100000010001100011 V"
b100000010001100011 }"
b101 D
b101 8"
b101 f"
b101 o"
b10100 P
b10100 e"
b10100 u"
b100 l
b100 d"
b100 t"
b11000 Q
b11000 -"
b11000 `"
b1011 (
b1011 )
b1011 y"
b1011 m
b1011 ,"
b1011 _"
b1 p
b1 z
b1 J"
0@
1h
b10000 F
b10000 *"
b10000 >"
b10000 P"
b111 5
b111 6"
b111 S"
b11 H
b11 O"
b1001000 O
b110000 `
b110000 %"
b110000 K"
b11100 S
b11100 +"
b11100 L"
b11000 M
b11000 M"
b10000011010001000110011 ]
b10000011010001000110011 W"
b100000 T
b100000 I"
b100000 X"
b11100 N
b11100 H"
b11100 Y"
b100100 R
b100100 U"
b100100 l"
b100000 %
b100000 +
b100000 |"
b100000 L
b100000 T"
b100000 j"
b100000 k"
1!
#220000
0!
#230000
b11111111111111111111111111111000 t
b1000 a
b1000 1"
b1000 @"
b1000 4"
0A
b10 _
b10 3"
b10 \"
1i
b1 o
b1 ""
b1 ]"
b111 4
b111 y
b111 &"
b1 q
b1 #"
b1 ?"
b10000010100 ^"
b0 I
b0 F"
b0 q"
b111 K
b111 G"
b111 r"
b111 b
b111 $"
b111 ("
b1011 9
b1011 p"
b1011 x"
b101000 U
b101000 i"
b1010010011 '
b1010010011 ^
b1010010011 V"
b1010010011 }"
b0 }
b1100011 Z"
b10000001000 2"
b1000 G
b1000 A"
b0 6
b0 <"
b0 C"
b100 8
b100 ;"
b100 B"
b0 n"
b100 m"
10
b0 n
b0 s
b0 '"
b0 {
b0 e
b0 9"
b101 x
b1100 .
b1100 r
b1100 c
b101000 R
b101000 U"
b101000 l"
b100100 %
b100100 +
b100100 |"
b100100 L
b100100 T"
b100100 j"
b100100 k"
b100000010001100011 ]
b100000010001100011 W"
b100100 T
b100100 I"
b100100 X"
b100000 N
b100000 H"
b100000 Y"
b101 p
b101 z
b101 J"
1@
0h
b100 F
b100 *"
b100 >"
b100 P"
b100 5
b100 6"
b100 S"
b11 7
b11 7"
b11 R"
b111 H
b111 O"
b1100 J
b1100 N"
bx `
bx %"
bx K"
b100000 S
b100000 +"
b100000 L"
bx O
b11100 M
b11100 M"
0?
b10000 E
b10000 ."
b10000 5"
b10000 a"
b11100 Q
b11100 -"
b11100 `"
b11 #
b11 /
b11 {"
b11 1
b11 0"
b1000 (
b1000 )
b1000 y"
b1000 m
b1000 ,"
b1000 _"
b11000 P
b11000 e"
b11000 u"
b1011 l
b1011 d"
b1011 t"
1!
#240000
0!
#250000
0w
b11111111111111111111111111111111 t
b0 q
b0 #"
b0 ?"
1f
b0 4
b0 y
b0 &"
0v
1A
b0 _
b0 3"
b0 \"
1k
0i
b10 o
b10 ""
b10 ]"
b1000 9
b1000 p"
b1000 x"
1g
1,
b0 b
b0 $"
b0 ("
b0 x
0u
b0 .
b0 r
b0 c
b100100001000 ^"
b0 a
b0 1"
b0 @"
b0 4"
b0 K
b0 G"
b0 r"
10
b0 n
b0 s
b0 '"
b0 {
1*
b10 e
b10 9"
0!"
b10011 Z"
b101 2"
b101 G
b101 A"
b0 8
b0 ;"
b0 B"
b0 m"
b101000 U
b101000 i"
b1000111010001000110011 '
b1000111010001000110011 ^
b1000111010001000110011 V"
b1000111010001000110011 }"
0>
b10000 D
b10000 8"
b10000 f"
b10000 o"
b11100 P
b11100 e"
b11100 u"
b1000 l
b1000 d"
b1000 t"
1?
b100 E
b100 ."
b100 5"
b100 a"
b100000 Q
b100000 -"
b100000 `"
b111 #
b111 /
b111 {"
b111 1
b111 0"
b0 (
b0 )
b0 y"
b0 m
b0 ,"
b0 _"
b1 p
b1 z
b1 J"
0@
1h
b1000 F
b1000 *"
b1000 >"
b1000 P"
b0 5
b0 6"
b0 S"
b100 7
b100 7"
b100 R"
b0 H
b0 O"
b111 J
b111 N"
b101000 O
b1000 `
b1000 %"
b1000 K"
b100100 S
b100100 +"
b100100 L"
b100000 M
b100000 M"
b1010010011 ]
b1010010011 W"
b101000 T
b101000 I"
b101000 X"
b100100 N
b100100 H"
b100100 Y"
b101100 R
b101100 U"
b101100 l"
b101000 %
b101000 +
b101000 |"
b101000 L
b101000 T"
b101000 j"
b101000 k"
1!
#260000
0!
#270000
0A
0k
b0 o
b0 ""
b0 ]"
0f
b0 ^"
b0 t
0g
0,
b0 9
b0 p"
b0 x"
b0 Z"
b0 2"
b0 G
b0 A"
b0 x
0*
b101100 U
b101100 i"
b0 e
b0 9"
b0 ]
b0 W"
b0 T
b0 I"
b0 X"
b0 N
b0 H"
b0 Y"
b0 p
b0 z
b0 J"
0h
b0 F
b0 *"
b0 >"
b0 P"
b0 7
b0 7"
b0 R"
b0 J
b0 N"
b0 `
b0 %"
b0 K"
b0 S
b0 +"
b0 L"
b0 O
b0 M
b0 M"
0?
b1000 E
b1000 ."
b1000 5"
b1000 a"
b100100 Q
b100100 -"
b100100 `"
b0 #
b0 /
b0 {"
b0 1
b0 0"
1>
b100 D
b100 8"
b100 f"
b100 o"
b100000 P
b100000 e"
b100000 u"
b0 l
b0 d"
b0 t"
1!
#280000
0!
#290000
b101 q
b101 #"
b101 ?"
1A
bx _
bx 3"
bx \"
b10 o
b10 ""
b10 ]"
b1xx000001000 ^"
bx a
bx 1"
bx @"
bx 4"
b101 I
b101 F"
b101 q"
b11 K
b11 G"
b11 r"
b10 }
1!"
b110011 Z"
b100011101000100 2"
b100 G
b100 A"
b10 6
b10 <"
b10 C"
b111 8
b111 ;"
b111 B"
b10 n"
b111 m"
b110000 U
b110000 i"
b10100100000001110110011 '
b10100100000001110110011 ^
b10100100000001110110011 V"
b10100100000001110110011 }"
0>
b1000 D
b1000 8"
b1000 f"
b1000 o"
b100100 P
b100100 e"
b100100 u"
b0 E
b0 ."
b0 5"
b0 a"
b0 Q
b0 -"
b0 `"
b1000111010001000110011 ]
b1000111010001000110011 W"
b101100 T
b101100 I"
b101100 X"
b101000 N
b101000 H"
b101000 Y"
b110000 R
b110000 U"
b110000 l"
b101100 %
b101100 +
b101100 |"
b101100 L
b101100 T"
b101100 j"
b101100 k"
1!
#300000
0!
